handle,type,name
backers,source,Backers (OpenCollective)
access,source,ACCESS (SSB Handshake grant)
ngizero,source,NLnet (NGI Zero)
ssbc_grants,source,"Dfinity (2017 ""SSBC Grants"")"
ethereum_community,source,Ethereum Community (via Dominic Tarr)
sidn,source,SIDN Fund
opencollective,bucket,Manyverse's OpenCollective
eth_wallet,bucket,ETH Wallet
ngizero_grant,bucket,Grant from NGI Zero
desktop_grant,bucket,Manyverse Desktop grant
dominic,bucket,Dominic Tarr
wttm,bucket,"UX Project ""Welcome to the Manyverse"""